<svg xmlns="http://www.w3.org/2000/svg" width="314" height="504.56" viewBox="0 0 314 504.56">
  <defs>
    <style>
      .cls-1 {
        fill: #476cbe;
        fill-rule: evenodd;
      }
    </style>
  </defs>
  <path class="cls-1" d="M3008,659h314v463H3008V659Zm157,406.43L3322,1122l-157,41.57L3008,1122Z" transform="translate(-3008 -659)"/>
</svg>
