<svg xmlns="http://www.w3.org/2000/svg" width="21" height="21.063" viewBox="0 0 21 21.063">
  <defs>
    <style>
      .cls-1 {
        fill: #bbd4e8;
        fill-rule: evenodd;
      }
    </style>
  </defs>
  <path class="cls-1" d="M2795.6,90.009a2.06,2.06,0,0,0-1.5-.687,2.136,2.136,0,0,0-1.52.683l-1.4,1.4c-0.12-.061-0.23-0.12-0.35-0.178a4.189,4.189,0,0,1-.43-0.234,15.219,15.219,0,0,1-3.66-3.333,8.762,8.762,0,0,1-1.2-1.892c0.36-.332.7-0.677,1.03-1.011,0.12-.125.25-0.254,0.37-0.378a2.026,2.026,0,0,0,0-3.073l-1.21-1.212c-0.14-.138-0.28-0.28-0.41-0.42-0.27-.277-0.55-0.562-0.84-0.828a2.085,2.085,0,0,0-1.49-.653,2.182,2.182,0,0,0-1.51.653s0,0-.01.008l-1.51,1.525a3.278,3.278,0,0,0-.96,2.065,7.777,7.777,0,0,0,.57,3.294,18.974,18.974,0,0,0,3.4,5.666,20.787,20.787,0,0,0,6.96,5.45,10.826,10.826,0,0,0,3.91,1.155c0.09,0,.19.009,0.28,0.009a3.339,3.339,0,0,0,2.56-1.1,0.21,0.21,0,0,1,.02-0.022,9.784,9.784,0,0,1,.78-0.8c0.19-.182.38-0.373,0.57-0.575a2.21,2.21,0,0,0,.67-1.535,2.124,2.124,0,0,0-.68-1.524Zm1.59,4.677h0c-0.17.186-.35,0.355-0.54,0.541-0.29.277-.58,0.565-0.86,0.889a2.131,2.131,0,0,1-1.67.7c-0.06,0-.14,0-0.2,0a9.663,9.663,0,0,1-3.47-1.039,19.713,19.713,0,0,1-6.55-5.135,17.892,17.892,0,0,1-3.2-5.324,6.2,6.2,0,0,1-.5-2.78,2,2,0,0,1,.61-1.318l1.52-1.515a1.018,1.018,0,0,1,.67-0.316,0.944,0.944,0,0,1,.65.311,0.012,0.012,0,0,1,.01.013c0.28,0.253.53,0.515,0.8,0.8,0.14,0.14.28,0.284,0.43,0.43l1.21,1.211a0.85,0.85,0,0,1,0,1.378c-0.13.128-.25,0.257-0.38,0.382-0.38.383-.73,0.737-1.12,1.085a0.033,0.033,0,0,0-.02.021,0.909,0.909,0,0,0-.23,1.008c0,0.013.01,0.028,0.01,0.04a9.8,9.8,0,0,0,1.44,2.341v0A16.289,16.289,0,0,0,2789.75,92c0.18,0.115.37,0.209,0.54,0.3s0.31,0.155.44,0.236c0.02,0.009.04,0.022,0.06,0.032a0.954,0.954,0,0,0,.44.109,0.944,0.944,0,0,0,.67-0.306l1.52-1.519a1,1,0,0,1,.67-0.333,0.9,0.9,0,0,1,.64.325c0.01,0,.01,0,0.01.008l2.45,2.447A0.874,0.874,0,0,1,2797.19,94.686Zm-6.85-12.707a5.713,5.713,0,0,1,4.66,4.655,0.6,0.6,0,0,0,.59.5,0.953,0.953,0,0,0,.1-0.009,0.592,0.592,0,0,0,.49-0.692,6.9,6.9,0,0,0-5.63-5.632,0.6,0.6,0,0,0-.69.488A0.589,0.589,0,0,0,2790.34,81.979Zm9.65,4.277a11.392,11.392,0,0,0-9.27-9.273,0.6,0.6,0,1,0-.2,1.179,10.169,10.169,0,0,1,8.29,8.288,0.6,0.6,0,0,0,.59.5,0.636,0.636,0,0,0,.1-0.009A0.583,0.583,0,0,0,2799.99,86.257Z" transform="translate(-2779 -76.969)"/>
</svg>
